0,0,0,-8.472397746
0,0,1,-5.354660453
0,0,2,-4.128861556
0,0,3,-11.62409601
0,0,4,-11.20107422
0,0,5,-13.14538246
0,0,6,-6.051427659
0,0,7,-8.258182731
0,0,8,-9.022744469
0,0,9,-5.719644814
0,0,10,-7.335796311
0,0,11,-7.458966404
0,0,12,-5.334847976
0,0,13,-11.6422677
0,0,14,-9.821947774
0,0,15,-14.27623075
0,1,0,-8.614208005
0,1,1,-8.065535296
0,1,2,-4.775932988
0,1,3,-11.59909765
0,1,4,-11.24822238
0,1,5,-13.41552169
0,1,6,-9.011912988
0,1,7,-10.03938787
0,1,8,-9.026788599
0,1,9,-9.010517168
0,1,10,-7.455312281
0,1,11,-7.544613377
0,1,12,-7.332403107
0,1,13,-12.93448785
0,1,14,-14.69759169
0,1,15,-13.68399017
0,2,0,-8.993252547
0,2,1,-8.667074657
0,2,2,-4.50031151
0,2,3,-12.49546537
0,2,4,-11.98951068
0,2,5,-13.94145518
0,2,6,-9.36563138
0,2,7,-9.091538477
0,2,9,-5.932068997
0,2,10,-7.930431476
0,2,11,-7.860299217
0,2,12,-7.593634607
0,2,13,-12.39682689
0,2,14,-10.74280664
0,2,15,-15.12353829
1,0,0,-8.393548934
1,0,1,-5.201695462
1,0,2,-3.96290889
1,0,3,-11.58442283
1,0,4,-11.19093669
1,0,5,-12.92938193
1,0,6,-9.677491408
1,0,7,-8.093166146
1,0,8,-9.586180952
1,0,9,-5.641460004
1,0,10,-7.327637848
1,0,11,-7.369859099
1,0,12,-6.671692707
1,0,13,-10.52962713
1,0,14,-9.864397664
1,0,15,-13.34414994
1,1,0,-8.500439744
1,1,1,-5.718148011
1,1,2,-4.447247817
1,1,3,-13.02076202
1,1,4,-10.46276866
1,1,5,-12.86927295
1,1,6,-10.14569338
1,1,7,-12.36483797
1,1,8,-9.011986245
1,1,9,-9.563527275
1,1,10,-9.480604812
1,1,11,-7.286696324
1,1,12,-7.352160331
1,1,13,-11.86397288
1,1,14,-9.464973968
1,1,15,-15.94472687
1,2,0,-9.007054775
1,2,1,-5.707173853
1,2,2,-4.394191554
1,2,3,-12.44357784
1,2,4,-11.98057842
1,2,5,-14.21944091
1,2,6,-6.568354391
1,2,7,-9.06661204
1,2,8,-10.04198871
1,2,9,-8.578299343
1,2,10,-7.875392037
1,2,11,-7.947907169
1,2,12,-6.009004614
1,2,13,-12.32322794
1,2,14,-10.90098019
1,2,15,-15.22173296
2,0,0,-8.746360096
2,0,1,-5.818687646
2,0,2,-4.209042472
2,0,3,-12.17396682
2,0,4,-11.09537796
2,0,5,-13.39061384
2,0,6,-5.979920403
2,0,7,-8.092824546
2,0,8,-9.270609936
2,0,9,-5.643040027
2,0,10,-7.25468577
2,0,11,-11.47711954
2,0,12,-6.120951088
2,0,13,-11.82286511
2,0,14,-10.38039109
2,0,15,-14.70914902
2,1,0,-8.383400355
2,1,1,-7.766980952
2,1,2,-4.956263741
2,1,3,-11.67145899
2,1,4,-11.28440504
2,1,5,-12.61318696
2,1,6,-10.1274506
2,1,7,-9.660418354
2,1,8,-8.963093722
2,1,9,-7.922636378
2,1,10,-8.445323111
2,1,11,-7.594232802
2,1,12,-6.337005865
2,1,13,-13.7976434
2,1,14,-7.015560236
2,1,15,-14.90005378
2,2,0,-9.300538442
2,2,1,-8.082856977
2,2,2,-4.88140337
2,2,3,-13.02675788
2,2,4,-11.84274224
2,2,5,-14.21317589
2,2,6,-9.473778405
2,2,7,-9.329767445
2,2,8,-9.720045471
2,2,9,-8.52852789
2,2,10,-7.803716188
2,2,11,-9.23734427
2,2,12,-6.067348587
2,2,13,-13.02833158
2,2,14,-11.2157953
2,2,15,-15.55343607
3,0,0,-8.660977051
3,0,1,-8.608494593
3,0,2,-3.830018044
3,0,3,-11.84364641
3,0,4,-11.07002508
3,0,5,-13.29933756
3,0,6,-6.16355345
3,0,7,-8.355212235
3,0,8,-9.258829981
3,0,9,-5.583955475
3,0,10,-7.505772732
3,0,11,-7.286247138
3,0,12,-6.087494914
3,0,13,-11.36946556
3,0,14,-10.03560489
3,0,15,-14.2470231
3,1,0,-8.675670312
3,1,1,-8.323283761
3,1,2,-4.611758216
3,1,3,-10.91404679
3,1,4,-11.23046247
3,1,5,-14.61219785
3,1,6,-9.19785624
3,1,7,-9.486569073
3,1,8,-9.614239782
3,1,9,-9.662776111
3,1,10,-7.414307987
3,1,11,-7.089972353
3,1,12,-8.471608024
3,1,13,-13.15168652
3,1,14,-3.172910331
3,1,15,-13.1122401
3,2,0,-9.182152627
3,2,1,-5.622299469
3,2,2,-4.245841218
3,2,3,-12.44188594
3,2,4,-12.16544665
3,2,5,-14.2077828
3,2,6,-10.17840299
3,2,7,-9.441111532
3,2,8,-10.11293746
3,2,9,-9.128643429
3,2,10,-8.007792391
3,2,11,-7.976572665
3,2,12,-6.827477215
3,2,13,-12.69057235
3,2,14,-10.83211153
3,2,15,-15.23251864
4,0,0,-8.526978335
4,0,1,-8.731869336
4,0,2,-4.58142638
4,0,3,-15.56764601
4,0,4,-11.78626007
4,0,5,-13.19441823
4,0,6,-9.489864531
4,0,7,-8.800667596
4,0,8,-9.258406646
4,0,9,-6.448990582
4,0,10,-7.435267303
4,0,11,-7.897524219
4,0,12,-6.065465222
4,0,13,-12.09084635
4,0,14,-10.06740112
4,0,15,-14.37917978
4,1,0,-9.447874735
4,1,1,-8.612179837
4,1,2,-4.804764345
4,1,3,-13.08952055
4,1,4,-11.61206056
4,1,5,-12.52317994
4,1,6,-10.00571848
4,1,7,-9.520110847
4,1,8,-9.521404997
4,1,9,-9.135489396
4,1,10,-10.6413408
4,1,11,-7.683157434
4,1,12,-8.234059874
4,1,13,-13.59320184
4,1,14,-11.75396773
4,1,15,-13.52412579
4,2,0,-9.19346887
4,2,1,-8.852854907
4,2,2,-4.987667488
4,2,3,-12.30445383
4,2,4,-12.49020462
4,2,5,-14.1737371
4,2,6,-9.741684775
4,2,7,-9.576487308
4,2,8,-9.769493757
4,2,9,-8.659389717
4,2,10,-9.487689411
4,2,11,-7.800395606
4,2,12,-6.076455683
4,2,13,-12.97397355
4,2,14,-10.80892399
4,2,15,-15.70045704
5,0,0,-8.947751632
5,0,1,-5.352756858
5,0,2,-4.303455972
5,0,3,-12.43655843
5,0,4,-12.04005039
5,0,5,-13.66031622
5,0,6,-6.1763605
5,0,7,-8.76729447
5,0,8,-9.673293688
5,0,9,-8.474519166
5,0,10,-7.493981236
5,0,11,-11.97635902
5,0,12,-6.057352036
5,0,13,-11.76121034
5,0,14,-0.126234731
5,0,15,-13.3592167
5,1,0,-8.668342406
5,1,1,-7.947181179
5,1,2,-4.988922285
5,1,3,-12.22328561
5,1,4,-11.53086454
5,1,5,-13.08107991
5,1,6,-9.817124468
5,1,7,-8.168521408
5,1,8,-9.322297087
5,1,9,-6.735532036
5,1,10,-7.715271018
5,1,11,-8.249631311
5,1,12,-7.968663962
5,1,13,-12.94978062
5,1,14,-14.67394796
5,1,15,-13.40262742
5,2,0,-9.08901117
5,2,1,-8.518170631
5,2,2,-5.212920105
5,2,3,-13.25462272
5,2,4,-12.36473357
5,2,5,-14.44009419
5,2,6,-8.465165335
5,2,7,-9.084002379
5,2,8,-10.10198887
5,2,9,-8.561591397
5,2,10,-9.612723982
5,2,11,-12.19640976
5,2,12,-6.004187094
5,2,13,-12.54116176
5,2,14,-14.43368689
5,2,15,-15.87494031
6,0,0,-8.833218019
6,0,1,-5.331485115
6,0,2,-3.68456083
6,0,3,-11.73063259
6,0,4,-11.30570285
6,0,5,-13.42278777
6,0,6,-9.92394109
6,0,7,-8.54685128
6,0,8,-9.810199991
6,0,9,-6.414134028
6,0,10,-7.384206576
6,0,11,-7.471399059
6,0,12,-6.062770564
6,0,13,-11.60952204
6,0,14,-9.81856528
6,0,15,-13.28725678
6,1,0,-8.193498492
6,1,1,-8.384626077
6,1,2,-4.353944711
6,1,3,-11.65603688
6,1,4,-11.30088601
6,1,5,-13.08541251
6,1,6,-9.228929454
6,1,7,-9.738268397
6,1,8,-9.873076387
6,1,9,-7.655136941
6,1,10,-9.818020354
6,1,11,-7.138390847
6,1,12,-6.956566597
6,1,13,-11.98597738
6,1,14,-9.672593049
6,1,15,-13.4883856
6,2,0,-9.442489598
6,2,1,-9.670957914
6,2,2,-4.133330093
6,2,3,-12.73057494
6,2,4,-12.22482886
6,2,5,-14.33911221
6,2,6,-6.725393007
6,2,7,-9.519528681
6,2,8,-10.37146892
6,2,9,-6.591464135
6,2,10,-8.072082401
6,2,11,-9.656195546
6,2,12,-6.386021592
6,2,13,-12.61591715
6,2,14,-10.60092233
6,2,15,-15.38018737
7,0,0,-7.543392984
7,0,1,-5.15993935
7,0,2,-3.966847244
7,0,3,-11.78471504
7,0,4,-11.2986358
7,0,5,-13.37746597
7,0,6,-6.180352678
7,0,7,-8.677660867
7,0,8,-9.858125206
7,0,9,-5.547589567
7,0,10,-7.473020649
7,0,11,-7.588783862
7,0,12,-6.634025069
7,0,13,-12.32441255
7,0,14,-10.18914072
7,0,15,-14.63158131
7,1,0,-9.053662658
7,1,1,-8.908487208
7,1,2,-4.840786174
7,1,3,-11.56811147
7,1,4,-11.47203694
7,1,5,-12.42729061
7,1,6,-6.983964095
7,1,7,-9.874933634
7,1,8,-10.53606278
7,1,9,-9.764841571
7,1,10,-9.610209646
7,1,11,-7.415535666
7,1,12,-7.897257773
7,1,13,-11.48528073
7,1,14,-9.917446299
7,1,15,-14.95585095
7,2,0,-9.531731121
7,2,1,-5.760234727
7,2,2,-4.687489053
7,2,3,-13.0246382
7,2,4,-12.57505009
7,2,5,-14.34671998
7,2,6,-9.963377247
7,2,7,-12.2497457
7,2,8,-10.37578189
7,2,9,-5.905548736
7,2,10,-8.254225935
7,2,11,-8.239731108
7,2,12,-6.381199092
7,2,13,-13.0785597
7,2,14,-10.72683541
7,2,15,-15.5889282
8,0,0,-8.753881966
8,0,1,-5.675741191
8,0,2,-4.161553034
8,0,3,-12.24405651
8,0,4,-11.68125395
8,0,5,-13.45933768
8,0,6,-6.317064692
8,0,7,-8.631659654
8,0,8,-9.69433429
8,0,9,-6.373044371
8,0,10,-7.656503855
8,0,11,-7.748821999
8,0,12,-7.840088603
8,0,13,-12.28906204
8,0,14,-9.177690375
8,0,15,-13.51784116
8,1,0,-8.569881779
8,1,1,-8.223800317
8,1,2,-4.975806745
8,1,3,-11.91283226
8,1,4,-11.47207624
8,1,5,-13.22860424
8,1,6,-9.81173066
8,1,7,-8.150018689
8,1,8,-9.601774488
8,1,9,-6.416076872
8,1,10,-8.361417544
8,1,11,-7.861340431
8,1,12,-7.763514973
8,1,13,-12.27931991
8,1,14,-6.941888714
8,1,15,-14.56150468
8,2,0,-9.301821394
8,2,1,-8.800299716
8,2,2,-5.130546105
8,2,3,-13.1943737
8,2,4,-12.38084629
8,2,5,-14.39614983
8,2,6,-9.762677262
8,2,7,-9.55738053
8,2,8,-10.11435658
8,2,9,-8.695323404
8,2,10,-7.99238494
8,2,11,-8.045497108
8,2,12,-8.042813481
8,2,13,-13.24442178
8,2,14,-11.44867005
8,2,15,-15.83339253
9,0,0,-8.831622098
9,0,1,-8.391530393
9,0,2,-4.434652376
9,0,3,-12.33184928
9,0,4,-11.93501986
9,0,5,-13.57608307
9,0,6,-6.374466499
9,0,7,-8.591560841
9,0,8,-9.521427139
9,0,9,-5.543977504
9,0,10,-7.732219427
9,0,11,-7.974816253
9,0,12,-6.096198278
9,0,13,-12.40564273
9,0,14,-10.56110863
9,0,15,-14.97823844
9,1,0,-9.052016624
9,1,1,-8.440026273
9,1,2,-5.133516771
9,1,3,-12.82377238
9,1,4,-11.40560218
9,1,5,-12.98538483
9,1,6,-9.193972887
9,1,7,-9.703145765
9,1,8,-9.523462425
9,1,9,-8.82324671
9,1,10,-9.289519055
9,1,11,-8.075736993
9,1,12,-7.489508946
9,1,13,-13.43096089
9,1,14,-6.962522617
9,1,15,-16.49348764
9,2,0,-9.288772947
9,2,1,-8.62773975
9,2,2,-4.839238495
9,2,3,-13.10384874
9,2,4,-12.60692425
9,2,5,-14.28371531
9,2,6,-9.429349757
9,2,7,-9.301475693
9,2,8,-9.93864105
9,2,9,-8.284821811
9,2,10,-8.248366287
9,2,11,-12.24518305
9,2,12,-6.299825323
9,2,13,-13.15352235
9,2,14,-1.630830537
9,2,15,-14.54833408
